Assignment 5 - DESeq2
…
#use tail to display the bottom of the list
tail(ranked_list)

##       Cpa1      Bmp10      Troap    Or51af1      Tnni1       Dlk1 
##  -8.805382  -9.237814  -9.259054  -9.402018  -9.865330 -10.281049

Perform a GSEA using a ranked list log2FoldChange values for all
genes discovered in the DESeq2 results against the C2 Canonical Pathways
gene set collection. As recommended, please set the minSize and maxSize
parameters to 15 and 500, respectively. Before running fgsea, you will
have to load the GMT pathways file in an appropriate format for
fgsea. Otherwise, run fgsea using default parameters and
the fgsea() function.

## # A tibble: 890 × 8
##    pathway                   pval   padj log2err     ES    NES  size leadingEdge
##    <chr>                    <dbl>  <dbl>   <dbl>  <dbl>  <dbl> <int> <list>     
##  1 BIOCARTA_AGR_PATHWAY    0.190  0.295   0.144  -0.211 -1.27     25 <chr [17]> 
##  2 BIOCARTA_AKT_PATHWAY    0.275  0.380   0.112   0.230  1.17     19 <chr [14]> 
##  3 BIOCARTA_ARENRF2_PATHW… 0.0271 0.0622  0.352   0.335  1.61     17 <chr [16]> 
##  4 BIOCARTA_ARF_PATHWAY    0.462  0.557   0.0848 -0.215 -0.989    15 <chr [9]>  
##  5 BIOCARTA_AT1R_PATHWAY   0.112  0.196   0.185   0.250  1.41     24 <chr [19]> 
##  6 BIOCARTA_ATM_PATHWAY    0.783  0.832   0.0566 -0.151 -0.751    17 <chr [3]>  
##  7 BIOCARTA_ATRBRCA_PATHW… 0.0106 0.0297  0.381  -0.378 -1.93     18 <chr [16]> 
##  8 BIOCARTA_BAD_PATHWAY    0.415  0.518   0.0903 -0.175 -1.01     23 <chr [9]>  
##  9 BIOCARTA_BARRESTIN_SRC… 0.122  0.210   0.177   0.304  1.38     15 <chr [11]> 
## 10 BIOCARTA_BCELLSURVIVAL… 0.329  0.438   0.102  -0.226 -1.09     16 <chr [14]> 
## # ℹ 880 more rows
…
